{
    "HASS_URL": "Your Home assistant IP with port, e.g. http://192.168.1.10:8123",
    "HASS_TOKEN": "your_long_lived_access_token_here",
    "CHROMECAST_ENTITY": "Your Chromecast target speaker, e.g. media_player.all_speakers"
}
